0.80000 0.94902 0.94902
0.70000 0.95539 0.95539
0.60000 0.96176 0.96176
0.50000 0.96814 0.96814
0.40000 0.97451 0.97451
0.30000 0.98088 0.98088
0.20000 0.98725 0.98725
0.10000 0.99363 0.99363
0.00000 1.00000 1.00000
0.09091 1.00000 0.90909
0.18182 1.00000 0.81818
0.27273 1.00000 0.72727
0.36364 1.00000 0.63636
0.45455 1.00000 0.54545
0.54545 1.00000 0.45455
0.63636 1.00000 0.36364
0.72727 1.00000 0.27273
0.81818 1.00000 0.18182
0.90909 1.00000 0.09091
1.00000 1.00000 0.00000
1.00000 0.92857 0.00000
1.00000 0.85714 0.00000
1.00000 0.78571 0.00000
1.00000 0.71429 0.00000
1.00000 0.64286 0.00000
1.00000 0.57143 0.00000
1.00000 0.50000 0.00000
1.00000 0.42857 0.00000
1.00000 0.35714 0.00000
1.00000 0.28571 0.00000
1.00000 0.21429 0.00000
1.00000 0.14286 0.00000
1.00000 0.07143 0.00000
1.00000 0.00000 0.00000
0.97826 0.00000 0.00000
0.95652 0.00000 0.00000
0.93478 0.00000 0.00000
0.91304 0.00000 0.00000
0.89130 0.00000 0.00000
0.86957 0.00000 0.00000
0.84783 0.00000 0.00000
0.82609 0.00000 0.00000
0.80435 0.00000 0.00000
0.78261 0.00000 0.00000
0.76087 0.00000 0.00000
0.73913 0.00000 0.00000
0.75362 0.00000 0.05556
0.76812 0.00000 0.11111
0.78261 0.00000 0.16667
0.79710 0.00000 0.22222
0.81159 0.00000 0.27778
0.82609 0.00000 0.33333
0.84058 0.00000 0.38889
0.85507 0.00000 0.44444
0.86957 0.00000 0.50000
0.88406 0.00000 0.55556
0.89855 0.00000 0.61111
0.91304 0.00000 0.66667
0.92754 0.00000 0.72222
0.94203 0.00000 0.77778
0.95652 0.00000 0.83333
0.97101 0.00000 0.88889
0.98551 0.00000 0.94444
1.00000 0.00000 1.00000
